<svg xmlns="http://www.w3.org/2000/svg" width="24" height="24" viewBox="0 0 24 24" fill="#241f1c">
  <circle cx="12" cy="12" r="10" opacity="0"/>
  <circle cx="12" cy="12" r="10" opacity="0"/>
  <path d="m8 8v8h8v-8h-8zm2 2h4v4h-4v-4z" opacity=".6"/>
</svg>
