<svg xmlns="http://www.w3.org/2000/svg" width="32" height="32" viewBox="0 0 32 32">
  <rect width="32" height="32" fill="#f7b0d7"/>
  <rect width="32" height="1" fill="#f7cfe5" fill-opacity=".4"/>
  <g fill="#241f1c">
    <circle cx="16" cy="16" r="12" opacity=".08"/>
    <circle cx="16" cy="16" r="12" opacity="0"/>
    <path d="m12 18h8v2h-8z" opacity=".6"/>
  </g>
</svg>
